{
  "requiresCompatibilities": [
    "EC2"
  ],
  "family": "ldarTaskDef",
  "containerDefinitions": [
    {
      "name": "ldar",
      "image": "344250484034.dkr.ecr.us-east-2.amazonaws.com/harpocrates/ldar:1.6.4",
      "memory": 1024,
      "logConfiguration": {
        "logDriver": "awslogs",
        "secretOptions": null,
        "options": {
          "awslogs-group": "ldar-logs",
          "awslogs-region": "eu-north-1",
          "awslogs-create-group": "true",
          "awslogs-stream-prefix": "ldar"
        }
      },
      "portMappings": [
        {
          "containerPort": 8097,
          "hostPort": 8097,
          "protocol": "tcp"
        }
      ],
      "mountPoints": [
        {
          "containerPath": "/etc/privacyone/ldar",
          "sourceVolume": "ldarVol"
        }
      ]
    }
  ],
  "volumes": [
    {
      "name": "ldarVol",
      "host": {
        "sourcePath": "/etc/privacyone/ldar"
      }
    }
  ]
}
